%!Adobe-FontList 1.23
%Locale:0x409

%BeginFont
Handler:DirectoryHandler
FontType:Invalid
OutlineFileName:/Users/schaebec/Desktop/asz/2211_Asz flyer Ordner/Document fonts/AdobeFnt23.lst
FileLength:3168
FileModTime:691926250
%EndFont

%BeginFont
Handler:DirectoryHandler
FontType:TrueType
FontName:Arial-Black
FamilyName:Arial Black
StyleName:Regular
MenuName:Arial Black
StyleBits:0
WeightClass:900
WidthClass:5
AngleClass:0
FullName:Arial Black
WritingScript:Roman
OutlineFileName:/Users/schaebec/Desktop/asz/2211_Asz flyer Ordner/Document fonts/Arial Black.ttf
DataFormat:sfntData
hasSVG:no
VariableFontType:NonVariableFont
FileLength:122556
FileModTime:691926250
NameArray:0,Mac,4,Arial Black
NameArray:0,Win,1,Arial Black
%EndFont

%BeginFont
Handler:DirectoryHandler
FontType:TrueType
FontName:Barlow-Bold
FamilyName:Barlow
StyleName:Bold
MenuName:Barlow
StyleBits:2
WeightClass:700
WidthClass:5
AngleClass:0
FullName:Barlow Bold
WritingScript:Roman
OutlineFileName:/Users/schaebec/Desktop/asz/2211_Asz flyer Ordner/Document fonts/Barlow-Bold.ttf
DataFormat:sfntData
hasSVG:no
VariableFontType:NonVariableFont
FileLength:102940
FileModTime:530665200
NameArray:0,Win,1,Barlow
%EndFont

%BeginFont
Handler:DirectoryHandler
FontType:TrueType
FontName:Barlow-ExtraBold
FamilyName:Barlow
StyleName:ExtraBold
MenuName:Barlow ExtraBold
StyleBits:0
WeightClass:800
WidthClass:5
AngleClass:0
FullName:Barlow ExtraBold
WritingScript:Roman
OutlineFileName:/Users/schaebec/Desktop/asz/2211_Asz flyer Ordner/Document fonts/Barlow-ExtraBold.ttf
DataFormat:sfntData
hasSVG:no
VariableFontType:NonVariableFont
FileLength:104848
FileModTime:530665200
NameArray:0,Win,1,Barlow ExtraBold
NameArray:0,Win,16,Barlow
%EndFont

%BeginFont
Handler:DirectoryHandler
FontType:TrueType
FontName:Barlow-Light
FamilyName:Barlow
StyleName:Light
MenuName:Barlow Light
StyleBits:0
WeightClass:300
WidthClass:5
AngleClass:0
FullName:Barlow Light
WritingScript:Roman
OutlineFileName:/Users/schaebec/Desktop/asz/2211_Asz flyer Ordner/Document fonts/Barlow-Light.ttf
DataFormat:sfntData
hasSVG:no
VariableFontType:NonVariableFont
FileLength:97936
FileModTime:530665200
NameArray:0,Win,1,Barlow Light
NameArray:0,Win,16,Barlow
%EndFont

%BeginFont
Handler:DirectoryHandler
FontType:TrueType
FontName:Barlow-Medium
FamilyName:Barlow
StyleName:Medium
MenuName:Barlow Medium
StyleBits:0
WeightClass:500
WidthClass:5
AngleClass:0
FullName:Barlow Medium
WritingScript:Roman
OutlineFileName:/Users/schaebec/Desktop/asz/2211_Asz flyer Ordner/Document fonts/Barlow-Medium.ttf
DataFormat:sfntData
hasSVG:no
VariableFontType:NonVariableFont
FileLength:98244
FileModTime:530665200
NameArray:0,Win,1,Barlow Medium
NameArray:0,Win,16,Barlow
%EndFont

%BeginFont
Handler:DirectoryHandler
FontType:TrueType
FontName:Barlow-Regular
FamilyName:Barlow
StyleName:Regular
MenuName:Barlow
StyleBits:0
WeightClass:400
WidthClass:5
AngleClass:0
FullName:Barlow Regular
WritingScript:Roman
OutlineFileName:/Users/schaebec/Desktop/asz/2211_Asz flyer Ordner/Document fonts/Barlow-Regular.ttf
DataFormat:sfntData
hasSVG:no
VariableFontType:NonVariableFont
FileLength:98812
FileModTime:530665200
NameArray:0,Win,1,Barlow
%EndFont

%BeginFont
Handler:DirectoryHandler
FontType:Invalid
OutlineFileName:/Users/schaebec/Desktop/asz/2211_Asz flyer Ordner/Document fonts/TimesLTMM
FileLength:208494
FileModTime:604649685
%EndFont

